{
  "entry": {
    "properties": {
      "lentry": {
        "properties": {
          "uri": { "type": "keyword" },
          "sense": {
            "properties": {
              "uri": { "type": "keyword" },
              "definition":              {
                "properties": {
                  "label": { "type": "text" },
                  "lang":  { "type": "keyword" }
                }
              },
              "usageExample":     {
                "properties": {
                  "uri": { "type": "keyword" },
                  "bibliographicalCitation": {
                    "properties": {
                      "uri": { "type": "keyword" },
                      "label": { "type": "text" },
                      "lang":  { "type": "keyword" }
                    }
                  },
                  "value": {
                    "properties": {
                      "label": { "type": "text" },
                      "lang":  { "type": "keyword" }
                    }
                  }
                }
              },
              "locations": { "type": "keyword"  }
            }
          },
          "canonicalForm":    {
            "properties": {
              "uri": { "type": "keyword" },
              "label": { "type": "text" },
              "lang":  { "type": "keyword" }
            }
          },
          "otherForm":    {
            "properties": {
              "uri": { "type": "keyword" },
              "label": { "type": "text" },
              "lang":  { "type": "keyword" }
            }
          },
          "gender": {
            "properties": {
              "uri": { "type": "keyword" },
              "label": { "type": "text" },
              "lang":  { "type": "keyword" }
            }
          },
          "pos":              {
            "properties": {
              "uri": { "type": "keyword" },
              "label": { "type": "text" },
              "lang":  { "type": "keyword" }
            }
          }
        }
      }
    }
  }
}
