{
  "_index": "ddf",
  "_type": "entry",
  "_id": "http://data.dictionnairedesfrancophones.org/dict/inv/entry/873",
  "_score": 1,
  "_source": {
    "lentry": {
      "uri" : "http://data.dictionnairedesfrancophones.org/dict/inv/entry/873/en/0",
      "sense": {
        "uri" : "http://data.dictionnairedesfrancophones.org/dict/inv/entry/873/en/0/ls/0",
        "definition": {
          "label" : "Jeter un sort à qqn: dgibser*, faire fétiche*, faire gris-gris*, grigriser*, marabouter*, travailler.",
          "lang": "fr"
        },
        "usageExample": {
          "uri": "http://data.dictionnairedesfrancophones.org/dict/inv/entry/873/en/0/ls/0/ex/0",
          "bibliographicalCitation": {
            "label": "text",
            "lang": "fr"
          },
          "value" : {
            "label": "« Ma co-épouse* m'a enfermée dans un cadenas »",
            "lang": "fr"
          },
        },
        "locations": [
          "http://www.geonames.org/2245662",
          "http://www.geonames.org/2287781"
        ]
      },
      "canonicalForm": {
        "uri": "http://data.dictionnairedesfrancophones.org/dict/inv/entry/873/en/0/fo/0",
        "label": "cadenas enfermer qqn dans un  faire  mettre qqn dans un",
        "lang": "fr"
      },
      "gender": {
        "uri": "http://www.lexinfo.net/ontology/2.0/lexinfo#article",
        "label": "text",
        "lang": "fr"
      },
      "pos": {
        "uri": "http://www.lexinfo.net/ontology/2.0/lexinfo#article",
        "label": "text",
        "lang": "fr"
      }
    }
  }
}
